%YAML 1.1
%TAG !u! tag:unity3d.com,2011:
--- !u!74 &7400000
AnimationClip:
  m_ObjectHideFlags: 0
  m_CorrespondingSourceObject: {fileID: 0}
  m_PrefabInstance: {fileID: 0}
  m_PrefabAsset: {fileID: 0}
  m_Name: EnemyWalk
  serializedVersion: 6
  m_Legacy: 0
  m_Compressed: 0
  m_UseHighQualityCurve: 1
  m_RotationCurves: []
  m_CompressedRotationCurves: []
  m_EulerCurves: []
  m_PositionCurves: []
  m_ScaleCurves: []
  m_FloatCurves: []
  m_PPtrCurves:
  - curve:
    - time: 0
      value: {fileID: 21300000, guid: 6ee80db94b4a6994ba3aeefb9f1ff9fc, type: 3}
    - time: 0.083333336
      value: {fileID: 21300000, guid: 6c2c1550239f18d48b5b85cc5952a997, type: 3}
    - time: 0.16666667
      value: {fileID: 21300000, guid: c02c147be5832cf4f9b0139e5da7aa12, type: 3}
    - time: 0.25
      value: {fileID: 21300000, guid: d46878230144a2547a5f232ac8a3f995, type: 3}
    - time: 0.33333334
      value: {fileID: 21300000, guid: 22a50dbcecc472f4eb43a79bc8b9d784, type: 3}
    - time: 0.41666666
      value: {fileID: 21300000, guid: 98a47d5b25b6eac4f8360931a8dcb913, type: 3}
    - time: 0.5
      value: {fileID: 21300000, guid: b49de249a925f404c8ed025626531f11, type: 3}
    - time: 0.5833333
      value: {fileID: 21300000, guid: 550f8468046091d41885d48040442a99, type: 3}
    - time: 0.6666667
      value: {fileID: 21300000, guid: 0691871825c83b9489d72663ce526aec, type: 3}
    - time: 0.75
      value: {fileID: 21300000, guid: 13bbc99e5eb861d40a6427a970f9caca, type: 3}
    - time: 0.8333333
      value: {fileID: 21300000, guid: 01f3e319279a1bd478bc2ebab68b9a49, type: 3}
    - time: 0.9166667
      value: {fileID: 21300000, guid: 2b9332c9ab877e04c9ebe42074bc178a, type: 3}
    - time: 1
      value: {fileID: 21300000, guid: 0efbce8710931404da59d7a9f60c3f90, type: 3}
    - time: 1.0833334
      value: {fileID: 21300000, guid: 1cbbee5a439643446aeaa9bff87699b3, type: 3}
    - time: 1.1666666
      value: {fileID: 21300000, guid: a5180193f6469b7499577ffc2f008731, type: 3}
    - time: 1.25
      value: {fileID: 21300000, guid: b47c9e5d2295297409bd37eea5409869, type: 3}
    attribute: m_Sprite
    path: 
    classID: 212
    script: {fileID: 0}
  m_SampleRate: 12
  m_WrapMode: 0
  m_Bounds:
    m_Center: {x: 0, y: 0, z: 0}
    m_Extent: {x: 0, y: 0, z: 0}
  m_ClipBindingConstant:
    genericBindings:
    - serializedVersion: 2
      path: 0
      attribute: 0
      script: {fileID: 0}
      typeID: 212
      customType: 23
      isPPtrCurve: 1
    pptrCurveMapping:
    - {fileID: 21300000, guid: 6ee80db94b4a6994ba3aeefb9f1ff9fc, type: 3}
    - {fileID: 21300000, guid: 6c2c1550239f18d48b5b85cc5952a997, type: 3}
    - {fileID: 21300000, guid: c02c147be5832cf4f9b0139e5da7aa12, type: 3}
    - {fileID: 21300000, guid: d46878230144a2547a5f232ac8a3f995, type: 3}
    - {fileID: 21300000, guid: 22a50dbcecc472f4eb43a79bc8b9d784, type: 3}
    - {fileID: 21300000, guid: 98a47d5b25b6eac4f8360931a8dcb913, type: 3}
    - {fileID: 21300000, guid: b49de249a925f404c8ed025626531f11, type: 3}
    - {fileID: 21300000, guid: 550f8468046091d41885d48040442a99, type: 3}
    - {fileID: 21300000, guid: 0691871825c83b9489d72663ce526aec, type: 3}
    - {fileID: 21300000, guid: 13bbc99e5eb861d40a6427a970f9caca, type: 3}
    - {fileID: 21300000, guid: 01f3e319279a1bd478bc2ebab68b9a49, type: 3}
    - {fileID: 21300000, guid: 2b9332c9ab877e04c9ebe42074bc178a, type: 3}
    - {fileID: 21300000, guid: 0efbce8710931404da59d7a9f60c3f90, type: 3}
    - {fileID: 21300000, guid: 1cbbee5a439643446aeaa9bff87699b3, type: 3}
    - {fileID: 21300000, guid: a5180193f6469b7499577ffc2f008731, type: 3}
    - {fileID: 21300000, guid: b47c9e5d2295297409bd37eea5409869, type: 3}
  m_AnimationClipSettings:
    serializedVersion: 2
    m_AdditiveReferencePoseClip: {fileID: 0}
    m_AdditiveReferencePoseTime: 0
    m_StartTime: 0
    m_StopTime: 1.3333334
    m_OrientationOffsetY: 0
    m_Level: 0
    m_CycleOffset: 0
    m_HasAdditiveReferencePose: 0
    m_LoopTime: 1
    m_LoopBlend: 0
    m_LoopBlendOrientation: 0
    m_LoopBlendPositionY: 0
    m_LoopBlendPositionXZ: 0
    m_KeepOriginalOrientation: 0
    m_KeepOriginalPositionY: 1
    m_KeepOriginalPositionXZ: 0
    m_HeightFromFeet: 0
    m_Mirror: 0
  m_EditorCurves: []
  m_EulerEditorCurves: []
  m_HasGenericRootTransform: 0
  m_HasMotionFloatCurves: 0
  m_Events: []
