%YAML 1.1
%TAG !u! tag:unity3d.com,2011:
--- !u!74 &7400000
AnimationClip:
  m_ObjectHideFlags: 0
  m_CorrespondingSourceObject: {fileID: 0}
  m_PrefabInstance: {fileID: 0}
  m_PrefabAsset: {fileID: 0}
  m_Name: PlayerIdle
  serializedVersion: 6
  m_Legacy: 0
  m_Compressed: 0
  m_UseHighQualityCurve: 1
  m_RotationCurves: []
  m_CompressedRotationCurves: []
  m_EulerCurves: []
  m_PositionCurves: []
  m_ScaleCurves: []
  m_FloatCurves: []
  m_PPtrCurves:
  - curve:
    - time: 0
      value: {fileID: 21300000, guid: fbe2ee91bc3ae8741abf7a9f7f0ff0d3, type: 3}
    - time: 0.041666668
      value: {fileID: 21300000, guid: 0a81c0a87a7855f49be1401062d8d60e, type: 3}
    - time: 0.083333336
      value: {fileID: 21300000, guid: 44a332d9446e8aa428d4f1b7fd045374, type: 3}
    - time: 0.125
      value: {fileID: 21300000, guid: e6bdba000f8f9814982782f7007c1e68, type: 3}
    - time: 0.16666667
      value: {fileID: 21300000, guid: b626dcde288fef44e9b2b8d968e84a27, type: 3}
    - time: 0.20833333
      value: {fileID: 21300000, guid: 7b3d3d707fb4e5a40af1a052972ec0b6, type: 3}
    - time: 0.25
      value: {fileID: 21300000, guid: 551ba13fbb243854a9cc00f289ab98c6, type: 3}
    - time: 0.29166666
      value: {fileID: 21300000, guid: abdcaa0ddc6dbc644be2cc7cd72b26cc, type: 3}
    - time: 0.33333334
      value: {fileID: 21300000, guid: e6459260bbb5a944aa92a29ea0466011, type: 3}
    - time: 0.375
      value: {fileID: 21300000, guid: 4e4fe69730d38534aadc242538d88538, type: 3}
    - time: 0.41666666
      value: {fileID: 21300000, guid: 541ba281e2775bc49a345d2bec7c3153, type: 3}
    - time: 0.45833334
      value: {fileID: 21300000, guid: 5a6c3ae0a96e19a4cb7c7a5ceddf7924, type: 3}
    - time: 0.5
      value: {fileID: 21300000, guid: acd30eb99971e934cb8eb18da8388aed, type: 3}
    - time: 0.5416667
      value: {fileID: 21300000, guid: 038f006d1a3c24d4c9699c9bab4c492d, type: 3}
    - time: 0.5833333
      value: {fileID: 21300000, guid: eeee4bddd270a2541b16eac624e1e846, type: 3}
    - time: 0.625
      value: {fileID: 21300000, guid: 248d097777171e347a15ad3f48256991, type: 3}
    attribute: m_Sprite
    path: 
    classID: 212
    script: {fileID: 0}
  m_SampleRate: 24
  m_WrapMode: 0
  m_Bounds:
    m_Center: {x: 0, y: 0, z: 0}
    m_Extent: {x: 0, y: 0, z: 0}
  m_ClipBindingConstant:
    genericBindings:
    - serializedVersion: 2
      path: 0
      attribute: 0
      script: {fileID: 0}
      typeID: 212
      customType: 23
      isPPtrCurve: 1
    pptrCurveMapping:
    - {fileID: 21300000, guid: fbe2ee91bc3ae8741abf7a9f7f0ff0d3, type: 3}
    - {fileID: 21300000, guid: 0a81c0a87a7855f49be1401062d8d60e, type: 3}
    - {fileID: 21300000, guid: 44a332d9446e8aa428d4f1b7fd045374, type: 3}
    - {fileID: 21300000, guid: e6bdba000f8f9814982782f7007c1e68, type: 3}
    - {fileID: 21300000, guid: b626dcde288fef44e9b2b8d968e84a27, type: 3}
    - {fileID: 21300000, guid: 7b3d3d707fb4e5a40af1a052972ec0b6, type: 3}
    - {fileID: 21300000, guid: 551ba13fbb243854a9cc00f289ab98c6, type: 3}
    - {fileID: 21300000, guid: abdcaa0ddc6dbc644be2cc7cd72b26cc, type: 3}
    - {fileID: 21300000, guid: e6459260bbb5a944aa92a29ea0466011, type: 3}
    - {fileID: 21300000, guid: 4e4fe69730d38534aadc242538d88538, type: 3}
    - {fileID: 21300000, guid: 541ba281e2775bc49a345d2bec7c3153, type: 3}
    - {fileID: 21300000, guid: 5a6c3ae0a96e19a4cb7c7a5ceddf7924, type: 3}
    - {fileID: 21300000, guid: acd30eb99971e934cb8eb18da8388aed, type: 3}
    - {fileID: 21300000, guid: 038f006d1a3c24d4c9699c9bab4c492d, type: 3}
    - {fileID: 21300000, guid: eeee4bddd270a2541b16eac624e1e846, type: 3}
    - {fileID: 21300000, guid: 248d097777171e347a15ad3f48256991, type: 3}
  m_AnimationClipSettings:
    serializedVersion: 2
    m_AdditiveReferencePoseClip: {fileID: 0}
    m_AdditiveReferencePoseTime: 0
    m_StartTime: 0
    m_StopTime: 0.6666667
    m_OrientationOffsetY: 0
    m_Level: 0
    m_CycleOffset: 0
    m_HasAdditiveReferencePose: 0
    m_LoopTime: 1
    m_LoopBlend: 1
    m_LoopBlendOrientation: 0
    m_LoopBlendPositionY: 0
    m_LoopBlendPositionXZ: 0
    m_KeepOriginalOrientation: 0
    m_KeepOriginalPositionY: 1
    m_KeepOriginalPositionXZ: 0
    m_HeightFromFeet: 0
    m_Mirror: 0
  m_EditorCurves: []
  m_EulerEditorCurves: []
  m_HasGenericRootTransform: 0
  m_HasMotionFloatCurves: 0
  m_Events: []
